{
  "$schema": "http://json-schema.org/draft-07/schema#",
  "$comment": "This file is an implementation detail! Licensed under MIT, by Alexander Lohnau",
  "type": "object",
  "properties": {
    "X-Plasma-RootPath": {
      "type": "string"
    },
    "X-Plasma-DropMimeTypes": {
      "type": "array",
      "uniqueItems": true,
      "items": {
        "type": "string"
      }
    },
    "X-KDE-ParentApp": {
      "type": "string"
    },
    "X-Plasma-ContainmentType": {
      "type": "string"
    },
    "X-Plasma-Provides": {
      "type": "array",
      "uniqueItems": true,
      "items": {
        "type": "string"
      }
    },
    "X-Plasma-DropUrlPatterns": {
      "type": "array",
      "uniqueItems": true,
      "items": {
        "type": "string"
      }
    },
    "X-Plasma-API": {
      "type": "string"
    },
    "KPackageStructure": {
      "type": "string",
      "pattern": "^\\w+/\\w+",
      "$comment": "Structure should consist of a namespace identifier and a resource identifier"
    },
    "X-Plasma-NotificationAreaCategory": {
      "type": "string"
    },
    "X-Plasma-API-Minimum-Version": {
      "type": "string",
      "pattern": "^\\d+(\\.\\d+)?(\\.\\d+)?$"
    },
    "X-Plasma-ConfigPlugins": {
      "type": "array",
      "uniqueItems": true,
      "items": {
        "type": "string"
      }
    },
    "$schema": {
      "type": "string",
      "$comment": "only for additionalProperties flag"
    },
    "KPlugin": {
      "type": "object",
      "$comment": "only for additionalProperties flag"
    }
  }
}
