{
  "$schema": "http://json-schema.org/draft-07/schema#",
  "description": "JSON schema for the KPluginMetaData specification",
  "$comment": "Licensed under MIT, by Alexander Lohnau. The single-source-of-trough should be in CI-utilities",
  "type": "object",
  "properties": {
    "KPlugin": {
      "additionalProperties": false,
      "properties": {
        "Name": {
          "type": "string"
        },
        "Description": {
          "type": "string"
        },
        "Icon": {
          "type": "string"
        },
        "Authors": {
          "type": "array",
          "items": {
            "$ref": "#/definitions/KAboutPerson"
          }
        },
        "Category": {
          "type": "string"
        },
        "License": {
          "type": "string"
        },
        "Copyright": {
          "type": "string"
        },
        "Id": {
          "type": "string"
        },
        "Version": {
          "type": "string"
        },
        "Website": {
          "type": "string"
        },
        "BugReportUrl": {
          "type": "string"
        },
        "EnabledByDefault": {
          "type": "boolean"
        },
        "MimeTypes": {
          "type": "array",
          "items": {
            "type": "string"
          }
        },
        "FormFactors": {
          "type": "array",
          "items": {
            "type": "string"
          }
        },
        "Translators": {
          "type": "array",
          "items": {
            "$ref": "#/definitions/KAboutPerson"
          }
        },
        "OtherContributors": {
          "type": "array",
          "items": {
            "$ref": "#/definitions/KAboutPerson"
          }
        },
        "InitialPreference": {
          "type": "number",
          "title": "Only for KParts compatibility"
        }
      },
      "patternProperties": {
        "^Name\\[.+\\]$": {
          "type": "string",
          "title": "Translated Name"
        },
        "^Description\\[.+\\]$": {
          "type": "string",
          "title": "Translated Description"
        },
        "^Copyright\\[.+\\]$": {
          "type": "string",
          "title": "Translated Copyright"
        }
      }
    }
  },
  "definitions": {
    "KAboutPerson": {
      "type": "object",
      "additionalProperties": false,
      "properties": {
        "Name": {
          "type": "string"
        },
        "Email": {
          "type": "string"
        },
        "Task": {
          "type": "string"
        },
        "Website": {
          "type": "string"
        },
        "AvatarUrl": {
          "type": "string"
        }
      },
      "patternProperties": {
        "^Name\\[.+\\]$": {
          "type": "string",
          "title": "Translated name"
        }
      },
      "required": [
        "Name"
      ]
    }
  }
}
